IOC – String Tricks & Final Review
…
Remove NA with {tidyr}

Remove rows with missing values.

data |> drop_na() # check across all columns
data |> drop_na(col1, col2) # specify columns where to check NA

Data Example

The annotation data for the Yeast (Saccharomyces cerevisiae) gene was obtained from the Ensembl data base.

annot <- readr::read_csv("../exos_data/mart_export.txt.gz") # read a compresseed file
annot

# A tibble: 7,127 × 9
   `Gene stable ID` `Gene type`    `Gene % GC content` `Transcript count`
   <chr>            <chr>                        <dbl>              <dbl>
 1 YBR024W          protein_coding                40.0                  1
 2 YDL245C          protein_coding                41.9                  1
 3 YBR232C          protein_coding                44.2                  1
 4 YDR320W-B        protein_coding                34.8                  1
 5 YBR021W          protein_coding                39.9                  1
 6 YGR014W          protein_coding                43.8                  1
 7 tT(AGU)O2        tRNA                          48.0                  1
 8 YKL119C          protein_coding                36.3                  1
 9 YPR031W          protein_coding                37.0                  1
10 YKL066W          protein_coding                38.7                  1
# ℹ 7,117 more rows
# ℹ 5 more variables: `Gene name` <chr>, `Chromosome/scaffold name` <chr>,
#   `Gene start (bp)` <dbl>, `Gene end (bp)` <dbl>, `Gene description` <chr>
…
annot |>
  count(`Gene type`, `Chromosome/scaffold name`)

# A tibble: 86 × 3
   `Gene type`    `Chromosome/scaffold name`     n
   <chr>          <chr>                      <int>
 1 ncRNA          I                              1
 2 ncRNA          IX                             2
 3 ncRNA          Mito                           1
 4 ncRNA          V                              3
 5 ncRNA          VI                             4
 6 ncRNA          VII                            2
 7 ncRNA          VIII                           2
 8 ncRNA          X                              1
 9 ncRNA          XIII                           2
10 protein_coding I                            117
# ℹ 76 more rows
…
Manipulate Data with {dplyr}

filter() rows based on values in columns.

annot |>
  filter(stringr::str_detect(`Gene type`, "RNA"))

# A tibble: 424 × 9
   `Gene stable ID` `Gene type` `Gene % GC content` `Transcript count`
   <chr>            <chr>                     <dbl>              <dbl>
 1 tT(AGU)O2        tRNA                       48.0                  1
 2 tR(ACG)E         tRNA                       58.9                  1
 3 Q0158            rRNA                       21.2                  1
 4 tG(UCC)O         tRNA                       56.9                  1
 5 tY(GUA)F1        tRNA                       52.8                  1
 6 tS(GCU)O         tRNA                       52.5                  1
 7 snR7-L           snRNA                      44.4                  1
 8 snR82            snoRNA                     39.6                  1
 9 RDN58-2          rRNA                       46.2                  1
10 tI(AAU)E2        tRNA                       58.1                  1
# ℹ 414 more rows
# ℹ 5 more variables: `Gene name` <chr>, `Chromosome/scaffold name` <chr>,
#   `Gene start (bp)` <dbl>, `Gene end (bp)` <dbl>, `Gene description` <chr>

Manipulate Data with {dplyr}

arrange() rows based on values in columns.

annot |>
  count(`Gene type`, `Chromosome/scaffold name`) |>
  arrange(`Chromosome/scaffold name`, desc(n))

# A tibble: 86 × 3
   `Gene type`          `Chromosome/scaffold name`     n
   <chr>                <chr>                      <int>
 1 protein_coding       I                            117
 2 tRNA                 I                              4
 3 transposable_element I                              2
 4 ncRNA                I                              1
 5 pseudogene           I                              1
 6 snoRNA               I                              1
 7 protein_coding       II                           456
 8 tRNA                 II                            13
 9 transposable_element II                             6
10 snoRNA               II                             2
# ℹ 76 more rows
…
Manipulate Data with {dplyr}

mutate() columns.

annot |>
  mutate(gene_group = ifelse(
    test = `Gene type` == "protein_coding",
    yes = "protein_coding",
    no = "non protein_coding"
  )) |>
  select(1:2, gene_group)

# A tibble: 7,127 × 3
   `Gene stable ID` `Gene type`    gene_group        
   <chr>            <chr>          <chr>             
 1 YBR024W          protein_coding protein_coding    
 2 YDL245C          protein_coding protein_coding    
 3 YBR232C          protein_coding protein_coding    
 4 YDR320W-B        protein_coding protein_coding    
 5 YBR021W          protein_coding protein_coding    
 6 YGR014W          protein_coding protein_coding    
 7 tT(AGU)O2        tRNA           non protein_coding
 8 YKL119C          protein_coding protein_coding    
 9 YPR031W          protein_coding protein_coding    
10 YKL066W          protein_coding protein_coding    
# ℹ 7,117 more rows
…
