IOC – Tidy Your Data: Exploring {tidyr} and {dplyr}
…
[1] 2.309401

|> native pipe operator, built into base R (version 4.1+)

%>% pipe from the {magrittr} package

What is a tibble?

A “modern” data frame, compatible with the data frame, but with some enhancements.

Data imported by {readr} is in tibble format.

readr::read_csv("../exos_data/read-counts.csv")

# A tibble: 45 × 41
   Feature    WT.1  WT.2  WT.3  WT.4  WT.5  WT.6  WT.7  WT.8  WT.9 WT.10 SET1.1
   <chr>     <dbl> <dbl> <dbl> <dbl> <dbl> <dbl> <dbl> <dbl> <dbl> <dbl>  <dbl>
 1 HTB2      20648   466  1783 25335 64252 24126  9067 19721 67353 28059  21214
 2 HHF1       7867   147   427  5178 27889  8547  3432  6935 34229 13913   9807
 3 HHT1       1481    37   187  1856  3952  1020   484  1409  4636  1870   1604
 4 POL30       743    27   370  4050   877   357   845  2110  1872   684   1075
 5 KCC4        185     6   200   669   166    68   360   595   438   204    209
 6 MCD1        457    16   117  1696   586   244   464  1227  1204   457    538
 7 MSA1-1of2     8     0     5    23    13    12    15     9    19    16      8
 8 HTB1       4209   105   493  4887 12369  3597  1769  3664 13649  5455   4560
 9 SUT476      100     8    10    28    23    31    47    42   122    72    143
10 APQ12      4644   490  4242  7891  6477  6754  6010  6494  7744  4722   4231
# ℹ 35 more rows
# ℹ 29 more variables: SET1.2 <dbl>, SET1.3 <dbl>, SET1.4 <dbl>, SET1.5 <dbl>,
#   SET1.6 <dbl>, SET1.7 <dbl>, SET1.8 <dbl>, SET1.9 <dbl>, SET1.10 <dbl>,
#   SET1.RRP6.1 <dbl>, SET1.RRP6.2 <dbl>, SET1.RRP6.3 <dbl>, SET1.RRP6.4 <dbl>,
#   SET1.RRP6.5 <dbl>, SET1.RRP6.6 <dbl>, SET1.RRP6.7 <dbl>, SET1.RRP6.8 <dbl>,
#   SET1.RRP6.9 <dbl>, SET1.RRP6.10 <dbl>, RRP6.1 <dbl>, RRP6.2 <dbl>,
#   RRP6.3 <dbl>, RRP6.4 <dbl>, RRP6.5 <dbl>, RRP6.6 <dbl>, RRP6.7 <dbl>, …
…
mutate(iris_tbl, sepal_len_mm = Sepal.Length * 100, petal_len_mm = Petal.Length * 100) |>
  head(2)

# A tibble: 2 × 7
  Sepal.Length Sepal.Width Petal.Length Petal.Width Species sepal_len_mm
         <dbl>       <dbl>        <dbl>       <dbl> <fct>          <dbl>
1          5.1         3.5          1.4         0.2 setosa           510
2          4.9         3            1.4         0.2 setosa           490
# ℹ 1 more variable: petal_len_mm <dbl>

{dplyr} - rename() Columns

iris_tbl |> rename(espece = Species, petal_width = Petal.Width)

# A tibble: 150 × 5
   Sepal.Length Sepal.Width Petal.Length petal_width espece
          <dbl>       <dbl>        <dbl>       <dbl> <fct> 
 1          5.1         3.5          1.4         0.2 setosa
 2          4.9         3            1.4         0.2 setosa
 3          4.7         3.2          1.3         0.2 setosa
 4          4.6         3.1          1.5         0.2 setosa
 5          5           3.6          1.4         0.2 setosa
 6          5.4         3.9          1.7         0.4 setosa
 7          4.6         3.4          1.4         0.3 setosa
 8          5           3.4          1.5         0.2 setosa
 9          4.4         2.9          1.4         0.2 setosa
10          4.9         3.1          1.5         0.1 setosa
# ℹ 140 more rows
…
# A tibble: 2 × 6
  Sepal.Length Sepal.Width Petal.Length Petal.Width Species index
         <dbl>       <dbl>        <dbl>       <dbl> <fct>   <int>
1          5           3.6          1.4         0.2 setosa      5
2          4.7         3.2          1.3         0.2 setosa      3

{dplyr} - group_by Data

Use group_by to group data if we need operation based on defined group(s).

iris_tbl |> group_by(Species)

# A tibble: 150 × 6
# Groups:   Species [3]
   Sepal.Length Sepal.Width Petal.Length Petal.Width Species index
          <dbl>       <dbl>        <dbl>       <dbl> <fct>   <int>
 1          5.1         3.5          1.4         0.2 setosa      1
 2          4.9         3            1.4         0.2 setosa      2
 3          4.7         3.2          1.3         0.2 setosa      3
 4          4.6         3.1          1.5         0.2 setosa      4
 5          5           3.6          1.4         0.2 setosa      5
 6          5.4         3.9          1.7         0.4 setosa      6
 7          4.6         3.4          1.4         0.3 setosa      7
 8          5           3.4          1.5         0.2 setosa      8
 9          4.4         2.9          1.4         0.2 setosa      9
10          4.9         3.1          1.5         0.1 setosa     10
# ℹ 140 more rows
…
if_else(x < 0, "negative", "positive", missing = "not available")

[1] "negative"      "negative"      "positive"      "positive"     
[5] "positive"      "not available"

iris_tbl |>
  mutate(sepal_len_cat = if_else(
    condition = Sepal.Length >= 7,
    true = "long",
    false = "normal",
    missing = "missing"
  )) |>
  select(Sepal.Length, Species, sepal_len_cat)

# A tibble: 150 × 3
   Sepal.Length Species sepal_len_cat
          <dbl> <fct>   <chr>        
 1          5.1 setosa  normal       
 2          4.9 setosa  normal       
 3          4.7 setosa  normal       
 4          4.6 setosa  normal       
 5          5   setosa  normal       
 6          5.4 setosa  normal       
 7          4.6 setosa  normal       
 8          5   setosa  normal       
 9          4.4 setosa  normal       
10          4.9 setosa  normal       
# ℹ 140 more rows
…
